<svg width="113" height="110" viewBox="0 0 113 110" fill="none" xmlns="http://www.w3.org/2000/svg">
<path d="M94.9546 10.9842C99.3258 14.7551 103.025 19.2407 105.895 24.2497C108.609 28.5631 110.509 33.3373 111.502 38.3358C112.49 44.4429 112.164 50.6904 110.545 56.6613C108.157 67.8832 102.984 78.3238 95.5016 87.0215C89.6349 93.7003 82.5078 99.1556 74.5288 103.075C66.5499 106.994 57.8758 109.3 49.004 109.86C41.2088 110.407 32.7298 109.45 25.8919 105.21C24.6821 104.594 23.6321 103.705 22.8251 102.613C22.0181 101.521 21.4762 100.257 21.2422 98.9195C21.1054 96.8681 18.9173 77.4485 14.9513 70.4739C10.9854 63.4992 8.66047 60.4905 5.37829 55.5673C2.0961 50.644 -0.365538 46.678 0.0447356 41.2077C0.415344 37.3673 1.78244 33.6903 4.01071 30.5406C10.2171 20.5375 19.0675 12.4443 29.5844 7.15503C40.7483 1.69794 53.1572 -0.708358 65.5517 0.18039C73.6204 0.727421 82.0994 2.64203 89.2108 6.88152C91.233 8.09171 93.1539 9.46377 94.9546 10.9842Z" fill="#F2F2F2"/>
<path d="M77.0394 80.3202C77.6242 79.0514 77.9155 77.6671 77.8919 76.2703C77.8682 74.8734 77.5301 73.4998 76.9027 72.2515C76.3556 71.0207 74.8513 69.9266 76.2189 68.2855L75.5351 67.1915C75.046 66.673 74.5893 66.125 74.1675 65.5504C71.2154 60.346 69.4414 54.5572 68.9707 48.5924V45.8573C69.928 45.8573 70.6118 46.1308 71.1588 45.8573C71.7059 45.5838 73.347 44.3529 73.2102 44.0794C73.0735 43.8059 71.9794 41.7546 71.2956 41.7546C70.6118 41.7546 69.2442 40.7972 69.5178 39.2929C69.7105 34.8025 71.6781 30.5723 74.9881 27.5317C75.2893 27.3127 75.5336 27.0244 75.7002 26.6912C75.8668 26.358 75.9509 25.9896 75.9454 25.6171V25.3436C75.8832 24.9072 75.6724 24.5056 75.3485 24.2067C75.0246 23.9077 74.6075 23.7296 74.1675 23.7025H54.7479C54.5032 23.6837 54.2572 23.7156 54.0255 23.7965C53.7938 23.8774 53.5813 24.0053 53.4014 24.1723C53.2216 24.3393 53.0782 24.5418 52.9805 24.7669C52.8827 24.992 52.8326 25.2349 52.8333 25.4804C52.827 25.5545 52.8359 25.6291 52.8594 25.6996C52.8829 25.7701 52.9206 25.8352 52.9701 25.8907C53.0009 26.2705 53.1148 26.6389 53.3039 26.9698C53.493 27.3007 53.7525 27.5859 54.0641 27.8053C57.1872 30.6842 59.0947 34.6459 59.3977 38.8826C59.5344 40.5237 59.808 42.0281 57.2096 41.8913C54.6112 41.7546 55.842 43.2589 55.1582 43.9427C55.7831 44.73 56.5204 45.4212 57.3463 45.994C58.2068 46.1344 59.0843 46.1344 59.9447 45.994C60.179 53.7212 57.7665 61.2965 53.1068 67.465C52.8333 67.7385 52.5598 68.4223 52.6966 68.5591C52.8333 68.6958 52.6966 70.4737 52.2863 71.2942C51.876 72.1148 49.9614 75.2602 50.6452 77.5851C51.329 79.91 52.423 81.551 50.9187 83.7392C50.7819 83.7392 50.9187 83.8759 51.0555 84.1494H77.7232C77.4542 83.48 77.2258 82.795 77.0394 82.0981C76.8304 81.5239 76.8304 80.8944 77.0394 80.3202Z" fill="#A41415"/>
<path d="M64.7308 22.8829C65.2993 22.8832 65.8619 22.7692 66.3854 22.5476C66.9089 22.3261 67.3825 22.0015 67.778 21.5932C68.1735 21.1849 68.4829 20.7013 68.6877 20.1711C68.8925 19.6408 68.9886 19.0748 68.9703 18.5066C68.9613 17.9319 68.8392 17.3646 68.611 16.8371C68.3828 16.3096 68.0529 15.8322 67.6402 15.4322C67.2275 15.0322 66.74 14.7174 66.2056 14.5057C65.6712 14.2941 65.1004 14.1898 64.5257 14.1988C63.951 14.2078 63.3837 14.3298 62.8562 14.5581C62.3287 14.7863 61.8513 15.1162 61.4512 15.5289C61.0512 15.9416 60.7364 16.4291 60.5248 16.9635C60.3131 17.4979 60.2088 18.0687 60.2178 18.6434C60.2355 19.2182 60.3663 19.7839 60.6027 20.3081C60.8391 20.8323 61.1766 21.3047 61.5957 21.6985C62.0148 22.0922 62.5074 22.3995 63.0454 22.6027C63.5833 22.8059 64.1561 22.9011 64.7308 22.8829Z" fill="#A41415"/>
<path d="M29.3106 84.1504C29.3106 82.3725 29.1739 80.7314 29.3106 79.0903C29.3206 78.71 29.414 78.3365 29.5841 77.9963C30.3803 77.3368 31.1128 76.6043 31.7723 75.8081C31.9136 75.6555 32.0085 75.4657 32.0458 75.2611C31.4988 70.2011 33.9604 66.5086 36.8323 62.8162L41.0718 58.0296C39.1846 57.5332 37.2655 57.1676 35.328 56.9356C34.3737 57.0392 33.4705 57.4194 32.7296 58.0296C32.2273 58.5278 31.6286 58.9182 30.9702 59.1769C30.3117 59.4355 29.6074 59.5571 28.9004 59.534C26.302 59.2605 25.2079 57.7561 25.0711 55.1577C25.0218 54.407 25.1731 53.6566 25.5096 52.9837C25.8461 52.3107 26.3555 51.7395 26.9858 51.3285C29.0371 49.5507 30.9517 47.4993 33.1398 45.5847C34.0356 44.7919 35.051 44.1458 36.1485 43.6701C36.9691 43.2598 37.6529 42.9863 37.6529 41.8922C37.6529 40.7982 38.3366 40.9349 38.7469 40.9349C38.9901 40.9224 39.2275 40.856 39.4419 40.7404C39.6563 40.6247 39.8422 40.4629 39.9862 40.2665C40.1302 40.0701 40.2287 39.8441 40.2746 39.6049C40.3204 39.3657 40.3125 39.1193 40.2512 38.8835C40.1832 38.1101 40.1832 37.3321 40.2512 36.5587L40.5248 36.2852C41.3453 37.2425 42.0291 38.1998 42.8496 39.0203C43.493 39.7677 44.2847 40.3731 45.1745 40.7982C52.0124 43.123 55.0211 49.6874 55.4314 55.1577C55.4845 59.026 54.8358 62.8718 53.5167 66.5086C52.833 68.6967 52.2859 71.0216 51.7389 73.2097C51.536 74.0179 51.3988 74.8411 51.3286 75.6714C54.2005 77.1757 55.2946 78.8168 54.6108 84.1504H29.3106Z" fill="#2F8C4B"/>
</svg>
