<svg width="54" height="61" viewBox="0 0 54 61" fill="none" xmlns="http://www.w3.org/2000/svg">
<rect x="1" y="1" width="50.6316" height="51.0357" rx="2" fill="white" stroke="#505051" stroke-width="2"/>
<line x1="9.47461" y1="8.82129" x2="43.1588" y2="8.82129" stroke="#505051" stroke-width="2"/>
<line x1="9.47461" y1="14.7139" x2="43.1588" y2="14.7139" stroke="#505051" stroke-width="2"/>
<line x1="9.47461" y1="20.6074" x2="43.1588" y2="20.6074" stroke="#505051" stroke-width="2"/>
<line x1="9.47461" y1="26.5" x2="43.1588" y2="26.5" stroke="#505051" stroke-width="2"/>
<path d="M34.629 56.4722L28.9612 56.4722L35.7112 42.6247L40.3147 45.1045L34.629 56.4722Z" fill="white" stroke="#505051" stroke-width="2"/>
<path d="M39.225 45.1142L44.9103 56.4836L50.5762 56.4762L43.8285 42.6343L39.225 45.1142Z" fill="white" stroke="#505051" stroke-width="2"/>
<path d="M47.4222 40.2683C47.4222 43.9912 44.1661 47.1254 40.0011 47.1254C35.8362 47.1254 32.5801 43.9912 32.5801 40.2683C32.5801 36.5453 35.8362 33.4111 40.0011 33.4111C44.1661 33.4111 47.4222 36.5453 47.4222 40.2683Z" fill="white" stroke="#505051" stroke-width="2"/>
<path d="M11.5264 42.8853C11.6193 43.1453 11.9055 43.2808 12.1655 43.1879C12.4256 43.095 12.561 42.8089 12.4681 42.5488L11.5264 42.8853ZM10.9447 37.3762L11.0582 36.8893L10.9447 37.3762ZM14.1023 40.8135L14.0466 40.3166L14.1023 40.8135ZM16.822 43.6989L16.4379 43.3787L16.822 43.6989ZM23.4529 42.1879C23.7031 42.3046 24.0006 42.1964 24.1174 41.9461C24.2341 41.6959 24.1259 41.3984 23.8756 41.2816L23.4529 42.1879ZM12.4681 42.5488C12.1969 41.7896 11.8597 41.0394 11.5467 40.361C11.2288 39.6722 10.9432 39.0726 10.7536 38.5784C10.6592 38.3326 10.5965 38.1326 10.5654 37.9761C10.5501 37.8988 10.5443 37.8408 10.5439 37.7991C10.5435 37.7569 10.5488 37.7428 10.5474 37.7469C10.5449 37.7545 10.5346 37.7779 10.5095 37.8011C10.485 37.8238 10.4657 37.8284 10.4706 37.8271C10.4952 37.8206 10.5974 37.8086 10.8311 37.8631L11.0582 36.8893C10.7656 36.821 10.4731 36.7918 10.214 36.8606C9.915 36.94 9.69458 37.1423 9.59845 37.4316C9.51652 37.6781 9.53962 37.9442 9.58456 38.1707C9.63163 38.408 9.71696 38.6684 9.81997 38.9368C10.025 39.4709 10.3315 40.1144 10.6387 40.78C10.9506 41.4559 11.2714 42.1713 11.5264 42.8853L12.4681 42.5488ZM10.8311 37.8631C11.4897 38.0167 11.8889 38.3273 12.1281 38.722C12.3762 39.1311 12.4856 39.6863 12.4479 40.3746C12.3719 41.7597 11.7096 43.506 10.7797 45.1516L11.6503 45.6436C12.6116 43.9424 13.3582 42.0381 13.4464 40.4293C13.4907 39.6206 13.3709 38.843 12.9833 38.2035C12.5868 37.5496 11.9437 37.0958 11.0582 36.8893L10.8311 37.8631ZM7.94549 44.835C7.85215 44.4418 7.84129 44.096 7.93045 43.7873C8.0175 43.486 8.21269 43.1752 8.61141 42.8684C9.43792 42.2324 11.0853 41.6544 14.1579 41.3104L14.0466 40.3166C10.9451 40.6638 9.05905 41.2622 8.00159 42.0759C7.45832 42.4939 7.12388 42.9762 6.96973 43.5098C6.81771 44.0361 6.8541 44.5671 6.97252 45.066L7.94549 44.835ZM14.1579 41.3104C14.6253 41.258 15.1901 41.1941 15.7376 41.1793C16.298 41.1642 16.7747 41.2036 17.0877 41.3207C17.2384 41.377 17.3149 41.4383 17.352 41.4857C17.3811 41.5228 17.4094 41.5795 17.4022 41.6962C17.3847 41.9774 17.1657 42.5056 16.4379 43.3787L17.2061 44.019C17.9519 43.1242 18.3616 42.3818 18.4002 41.7581C18.4211 41.4223 18.3343 41.1179 18.1392 40.869C17.9522 40.6302 17.6955 40.4803 17.4379 40.384C16.9344 40.1958 16.2944 40.1639 15.7106 40.1797C15.1137 40.1958 14.5065 40.2651 14.0466 40.3166L14.1579 41.3104ZM16.4379 43.3787C15.98 43.9281 15.6759 44.3335 15.5299 44.6094C15.4919 44.6814 15.4548 44.7623 15.4307 44.8469C15.4094 44.9213 15.3796 45.0601 15.4252 45.2155C15.483 45.4123 15.6327 45.5434 15.8009 45.5957C15.9353 45.6374 16.0585 45.6231 16.1277 45.6109C16.2731 45.5852 16.4289 45.5206 16.5654 45.4564C16.7119 45.3874 16.8793 45.2977 17.0593 45.1958C17.4188 44.9922 17.8591 44.7222 18.3329 44.4325C19.2916 43.8465 20.4028 43.171 21.4017 42.7013C21.9015 42.4662 22.3526 42.2928 22.728 42.2054C23.1202 42.1142 23.3447 42.1374 23.4529 42.1879L23.8756 41.2816C23.4575 41.0866 22.9583 41.1251 22.5014 41.2314C22.0277 41.3417 21.5043 41.548 20.9761 41.7964C19.9191 42.2934 18.7606 42.9991 17.8113 43.5793C17.3312 43.8728 16.908 44.1323 16.5665 44.3257C16.3959 44.4223 16.2533 44.498 16.1395 44.5516C16.0829 44.5782 16.0377 44.5973 16.0029 44.6102C15.966 44.6239 15.9515 44.6265 15.954 44.6261C15.9559 44.6257 15.9688 44.6235 15.9899 44.6235C16.0103 44.6235 16.0491 44.6256 16.0976 44.6407C16.2201 44.6788 16.34 44.7813 16.3848 44.9339C16.4022 44.9935 16.4024 45.0424 16.4005 45.0703C16.3985 45.0986 16.3936 45.1168 16.3922 45.1216C16.39 45.1294 16.3929 45.1167 16.4139 45.0769C16.5044 44.9058 16.7429 44.5746 17.2061 44.019L16.4379 43.3787ZM10.7797 45.1516C10.504 45.6393 9.89012 45.8858 9.23358 45.8104C8.57743 45.7351 8.07086 45.3632 7.94549 44.835L6.97252 45.066C7.22569 46.1325 8.19391 46.6976 9.11952 46.8039C10.0447 46.9101 11.1195 46.5828 11.6503 45.6436L10.7797 45.1516Z" fill="#505051"/>
</svg>
